{
	"info": {
		"_postman_id": "d1e1177f-2b29-47f9-85e3-3119da548d47",
		"name": "SoapCountryCollection",
		"schema": "https://schema.getpostman.com/json/collection/v2.1.0/collection.json",
		"_exporter_id": "3706746"
	},
	"item": [
		{
			"name": "ListOfContinentsByName",
			"event": [
				{
					"listen": "test",
					"script": {
						"exec": [
							"pm.test(\"Status code is 200\", function () {",
							"    pm.response.to.have.status(200);",
							"});",
							"",
							"/*",
							"var jsonObject = xml2Json(responseBody);",
							"console.log(jsonObject['soap:Envelope']['soap:Body']['m:ListOfContinentsByNameResponse']['m:ListOfContinentsByNameResult']['m:tContinent'][0])",
							"*/",
							"",
							"/*pm.test(\"Response contains AF\", function () {",
							"    var jsonObject = xml2Json(responseBody);",
							"    pm.expect(jsonObject['soap:Envelope']['soap:Body']['m:ListOfContinentsByNameResponse']['m:ListOfContinentsByNameResult']['m:tContinent'][0]['m:sCode']).to.eql('AF');",
							"});",
							"*/",
							"",
							"",
							"pm.test(\"Response contains AF\", function () {",
							"    const $ = cheerio.load(responseBody, {",
							"        ignoreWhitespace: true,",
							"        xmlMode: true",
							"    })",
							"    let Continent= $('m\\\\:ListOfContinentsByNameResult').children().first();",
							"    pm.expect(Continent.text()).to.contain(\"AF Africa\")",
							"    ",
							"});",
							""
						],
						"type": "text/javascript"
					}
				}
			],
			"request": {
				"method": "POST",
				"header": [
					{
						"key": "Content-Type",
						"value": "text/xml; charset=utf-8"
					}
				],
				"body": {
					"mode": "raw",
					"raw": "<?xml version=\"1.0\" encoding=\"utf-8\"?>\n<soap:Envelope xmlns:soap=\"http://schemas.xmlsoap.org/soap/envelope/\">\n  <soap:Body>\n    <ListOfContinentsByName xmlns=\"http://www.oorsprong.org/websamples.countryinfo\"/>\n  </soap:Body>\n</soap:Envelope>\n",
					"options": {
						"raw": {
							"language": "xml"
						}
					}
				},
				"url": {
					"raw": "{{CountryInfoServiceSoapBaseUrl}}/websamples.countryinfo/CountryInfoService.wso",
					"host": [
						"{{CountryInfoServiceSoapBaseUrl}}"
					],
					"path": [
						"websamples.countryinfo",
						"CountryInfoService.wso"
					]
				},
				"description": "Returns a list of continents ordered by name."
			},
			"response": [
				{
					"name": "ListOfContinentsByName response",
					"originalRequest": {
						"method": "POST",
						"header": [
							{
								"key": "Content-Type",
								"value": "text/xml; charset=utf-8"
							}
						],
						"body": {
							"mode": "raw",
							"raw": "<?xml version=\"1.0\" encoding=\"utf-8\"?>\n<soap:Envelope xmlns:soap=\"http://schemas.xmlsoap.org/soap/envelope/\">\n  <soap:Body>\n    <tns:ListOfContinentsByName xmlns=\"http://www.oorsprong.org/websamples.countryinfo\"/>\n  </soap:Body>\n</soap:Envelope>\n",
							"options": {
								"raw": {
									"language": "xml"
								}
							}
						},
						"url": {
							"raw": "http://webservices.oorsprong.org/websamples.countryinfo/CountryInfoService.wso",
							"protocol": "http",
							"host": [
								"webservices",
								"oorsprong",
								"org"
							],
							"path": [
								"websamples.countryinfo",
								"CountryInfoService.wso"
							]
						}
					},
					"status": "OK",
					"code": 200,
					"_postman_previewlanguage": "xml",
					"header": [
						{
							"key": "Content-Type",
							"value": "text/xml; charset=utf-8"
						}
					],
					"cookie": [],
					"body": "<?xml version=\"1.0\" encoding=\"utf-8\"?>\n<soap:Envelope xmlns:soap=\"http://schemas.xmlsoap.org/soap/envelope/\">\n  <soap:Body>\n    <tns:ListOfContinentsByNameResponse xmlns=\"http://www.oorsprong.org/websamples.countryinfo\">\n      <tns:ListOfContinentsByNameResult>\n        <tns:tContinent>\n          <tns:sCode>string</tns:sCode>\n          <tns:sName>string</tns:sName>\n        </tns:tContinent>\n      </tns:ListOfContinentsByNameResult>\n    </tns:ListOfContinentsByNameResponse>\n  </soap:Body>\n</soap:Envelope>\n"
				}
			]
		},
		{
			"name": "CountryISOCode",
			"event": [
				{
					"listen": "test",
					"script": {
						"exec": [
							"pm.test(\"Status code is 200\", function () {",
							"    pm.response.to.have.status(200);",
							"});",
							"",
							"pm.test(\"CountroISOCode is DE\", function () {",
							"    const $ = cheerio.load(responseBody, {",
							"        ignoreWhitespace: true,",
							"        xmlMode: true",
							"    })",
							"    let Continent= $('m\\\\:CountryISOCodeResult');",
							"    pm.expect(Continent.text()).to.eql(\"DE\")",
							"    ;",
							"});"
						],
						"type": "text/javascript"
					}
				}
			],
			"request": {
				"method": "POST",
				"header": [
					{
						"key": "Content-Type",
						"value": "text/xml; charset=utf-8"
					}
				],
				"body": {
					"mode": "raw",
					"raw": "<?xml version=\"1.0\" encoding=\"utf-8\"?>\n<soap:Envelope xmlns:soap=\"http://schemas.xmlsoap.org/soap/envelope/\">\n  <soap:Body>\n    <CountryISOCode xmlns=\"http://www.oorsprong.org/websamples.countryinfo\">\n      <sCountryName>Germany</sCountryName>\n    </CountryISOCode>\n  </soap:Body>\n</soap:Envelope>\n",
					"options": {
						"raw": {
							"language": "xml"
						}
					}
				},
				"url": {
					"raw": "{{CountryInfoServiceSoapBaseUrl}}/websamples.countryinfo/CountryInfoService.wso",
					"host": [
						"{{CountryInfoServiceSoapBaseUrl}}"
					],
					"path": [
						"websamples.countryinfo",
						"CountryInfoService.wso"
					]
				},
				"description": "This function tries to found a country based on the passed country name."
			},
			"response": [
				{
					"name": "CountryISOCode response",
					"originalRequest": {
						"method": "POST",
						"header": [
							{
								"key": "Content-Type",
								"value": "text/xml; charset=utf-8"
							}
						],
						"body": {
							"mode": "raw",
							"raw": "<?xml version=\"1.0\" encoding=\"utf-8\"?>\n<soap:Envelope xmlns:soap=\"http://schemas.xmlsoap.org/soap/envelope/\">\n  <soap:Body>\n    <tns:CountryISOCode xmlns=\"http://www.oorsprong.org/websamples.countryinfo\">\n      <tns:sCountryName>string</tns:sCountryName>\n    </tns:CountryISOCode>\n  </soap:Body>\n</soap:Envelope>\n",
							"options": {
								"raw": {
									"language": "xml"
								}
							}
						},
						"url": {
							"raw": "http://webservices.oorsprong.org/websamples.countryinfo/CountryInfoService.wso",
							"protocol": "http",
							"host": [
								"webservices",
								"oorsprong",
								"org"
							],
							"path": [
								"websamples.countryinfo",
								"CountryInfoService.wso"
							]
						}
					},
					"status": "OK",
					"code": 200,
					"_postman_previewlanguage": "xml",
					"header": [
						{
							"key": "Content-Type",
							"value": "text/xml; charset=utf-8"
						}
					],
					"cookie": [],
					"body": "<?xml version=\"1.0\" encoding=\"utf-8\"?>\n<soap:Envelope xmlns:soap=\"http://schemas.xmlsoap.org/soap/envelope/\">\n  <soap:Body>\n    <tns:CountryISOCodeResponse xmlns=\"http://www.oorsprong.org/websamples.countryinfo\">\n      <tns:CountryISOCodeResult>string</tns:CountryISOCodeResult>\n    </tns:CountryISOCodeResponse>\n  </soap:Body>\n</soap:Envelope>\n"
				}
			]
		}
	],
	"event": [
		{
			"listen": "prerequest",
			"script": {
				"type": "text/javascript",
				"exec": [
					""
				]
			}
		},
		{
			"listen": "test",
			"script": {
				"type": "text/javascript",
				"exec": [
					""
				]
			}
		}
	],
	"variable": [
		{
			"key": "CountryInfoServiceSoapBaseUrl",
			"value": "http://webservices.oorsprong.org",
			"type": "string"
		}
	]
}